[gd_scene load_steps=4 format=2]

[ext_resource path="res://assets/0x72_DungeonTilesetII_v1.3/frames/weapon_spear.png" type="Texture" id=1]
[ext_resource path="res://scripts/lance.gd" type="Script" id=2]

[sub_resource type="RectangleShape2D" id=1]
extents = Vector2( 15.5494, 1.9656 )

[node name="lance" type="KinematicBody2D" groups=[
"bullet",
]]
scale = Vector2( 0.8, 0.8 )
script = ExtResource( 2 )

[node name="CollisionShape2D" type="CollisionShape2D" parent="."]
shape = SubResource( 1 )

[node name="Sprite" type="Sprite" parent="."]
rotation = 1.5708
texture = ExtResource( 1 )
