[gd_resource type="ParticlesMaterial" format=2]

[resource]
emission_shape = 1
emission_sphere_radius = 2.5
flag_disable_z = true
direction = Vector3( 0, 0, 0 )
spread = 180.0
gravity = Vector3( 0, 0, 0 )
initial_velocity = 20.0
initial_velocity_random = 0.75
orbit_velocity = 0.0
orbit_velocity_random = 0.0
angle = 90.0
angle_random = 1.0
scale_random = 0.5
